{
  "page": 1,
  "per_page": 6,
  "total": 12,
  "total_pages": 2,
  "data": [
    { "id": 1, "email": "george.bluth@reqres.in", "first_name": "George", "last_name": "Bluth", "avatar": "https://i.pravatar.cc/150?img=1" },
    { "id": 2, "email": "janet.weaver@reqres.in", "first_name": "Janet", "last_name": "Weaver", "avatar": "https://i.pravatar.cc/150?img=2" },
    { "id": 3, "email": "emma.wong@reqres.in", "first_name": "Emma", "last_name": "Wong", "avatar": "https://i.pravatar.cc/150?img=3" },
    { "id": 4, "email": "eve.holt@reqres.in", "first_name": "Eve", "last_name": "Holt", "avatar": "https://i.pravatar.cc/150?img=4" },
    { "id": 5, "email": "charles.morris@reqres.in", "first_name": "Charles", "last_name": "Morris", "avatar": "https://i.pravatar.cc/150?img=5" },
    { "id": 6, "email": "tracey.ramos@reqres.in", "first_name": "Tracey", "last_name": "Ramos", "avatar": "https://i.pravatar.cc/150?img=6" }
  ]
}
